Id;NUMARA;ISIM;RADYUS;CAP;Z;TEORIK RADYUS;TEORIK Z;HAYATI;KESICI UC RADYUSU;KESICI UC YONU;TIP
400;1;5agiz;7.953;15.906;-0.011;0.000;0.000;10/19/2022 10:38:27 AM;0.000;0;0
410;2;3luagiz;15.966;31.932;105.570;0.000;0.000;10/19/2022 10:41:46 AM;0.000;0;0
420;3;drl;9.500;19.000;104.805;0.000;0.000;10/19/2022 10:55:09 AM;0.000;0;0
