Tool,IdNumber,ToolType,ToolUserType,Permanent,UnitsDiameter,Diameter,Angle,Radius,ProfileRadius,UpperRadius,NumTeeth,Description,TaperAngle,ShankDiameter,UnitsLength,Length,TotalLength,ShoulderLength,Startshoulderlength,TipLength,CuttingLength,HLength,Material,UnitsFeedSpin,FType,FeedXY,FeedZ,FeedFinish,SType,Spin,SpinFinish,FeedZPenetration,FeedLeadIn,FeedLeadOut,FeedLink,ToolName,ToolGroup,HolderName,GroupHolderName,Direction,ChamferLength,TipDiameter,ShoulderDiameter,ShoulderAngle,Message1,Message2,Message3,Message4,Message5,FloodCoolant,MistCoolant,HighPressureCoolant,LowPressureCoolant,ThroughHighPressureCoolant,ThroughLowPressureCoolant,AirBlastCoolant,MinimumQuantityLubricationCoolant,MinimumQuantityLubricationValue,Rough,SpinDirection,SpinLimit,ThreadingStandard,ThreadStandardByUser,ThreadingTableStandard,NumThreads,Pitch,PitchUnit
1,101,DRILL, DRILL,15,mm,19.884,180,9.942,0,0,1, ,0,4,mm,120,80,30,0,0,30,100, ,mm,F         ,565.884,565.884,565.884,S         ,5658.84,5658.84,N         ,100,100,200, , , , ,On B-axis,0,0,4.5,0, , , , , ,0,0,0,0,0,0,0,0,0,0,CW,0, ,0, ,2,0,mm
2,102,DRILL, DRILL,22,mm,19.62,118,9.81,0,0,1, ,0,4,mm,120.711,80,30,0,0,30,100, ,mm,F         ,562.137,562.137,562.137,S         ,5621.37,5621.37,N         ,100,100,200, , , , ,On B-axis,0,0,4.53,0, , , , , ,0,0,0,0,0,0,0,0,0,0,CW,0, ,0, ,2,0,mm
3,103,DRILL, DRILL,33,mm,147.438,118,73.719,0,0,1, ,0,4,mm,71.695,140,85,0,0,67,100, ,mm,F         ,424.413,424.413,424.413,S         ,4244.13,4244.13,N         ,100,100,200, , , , ,On B-axis,0,0,4.5,0, , , , , ,0,0,0,0,0,0,0,0,0,0,CW,0, ,0, ,2,0,mm
4,104,DRILL, DRILL,44,mm,147.438,180,73.719,0,0,1, ,0,2,mm,71.695,80,30,0,0,24,100, ,mm,F         ,572.958,572.958,572.958,S         ,7161.97,7161.97,N         ,100,100,200, , , , ,On B-axis,0,0,2,0, , , , , ,0,0,0,0,0,0,0,0,0,0,CW,0, ,0, ,2,0,mm
5,105,DRILL, DRILL,0,mm,2,118,0,0,0,1, ,0,2,mm,60,80,30,0,0,24,100, ,mm,F         ,716.197,716.197,716.197,S         ,7161.97,7161.97,N         ,100,100,200, , , , ,On B-axis,0,0,2,0, , , , , ,0,0,0,0,0,0,0,0,0,0,CW,0, ,0, ,2,0,mm
6,106,CHAMFER DRILL, CHAMFER MILL,0,mm,9,90,0,0,0,1, ,0,9,mm,40,60,20,0,0,10,100, ,mm,F         ,424.413,424.413,424.413,S         ,4244.13,4244.13,N         ,100,100,200, , , , ,On B-axis,0,0,9,0, , , , , ,0,0,0,0,0,0,0,0,0,0,CW,0, ,0, ,2,0,mm
7,107,SLOT MILL, SLOT MILL,0,mm,16,0,0.1,0,0,3, ,0,16,mm,52,100,15,0,0,3,100, ,mm,F         ,537.149,537.149,537.149,S         ,2984.16,2984.16,N         ,100,100,200, , , , ,On B-axis,0,0,7,0, , , , , ,0,0,0,0,0,0,0,0,0,0,CW,0, ,0, ,2,0.1,mm
8,108,SLOT MILL, SLOT MILL,0,mm,16,0,0.1,0,0,3, ,0,16,mm,52,100,15,0,0,3,100, ,mm,F         ,537.149,537.149,537.149,S         ,2984.16,2984.16,N         ,100,100,200, , , , ,On B-axis,0,0,7,0, , , , , ,0,0,0,0,0,0,0,0,0,0,CW,0, ,0, ,2,0.1,mm
