Id;Number;Name;Radius;Diameter;Z;Theorical Radius;Theorical Z;Life of;Cutter edge radius;Cutter edge orient.;Type
125;1;ROUTERER;9.942;19.884;120.000;0.000;0.000;3/30/2022 4:08:36 PM;0.000;0;0
126;24;Fresa_Router_D10;9.810;19.620;120.711;0.000;0.000;6/29/2022 10:13:16 AM;0.000;0;0


128;25;CSV_TEST;73.719;150.000;71.695;74.000;147.500;10/3/2022 10:34:17 AM;73.500;4;9999


133;25;CSV_TEST;73.719;147.438;71.695;74.000;147.500;10/3/2022 10:34:17 AM;73.500;4;9999
